<?xml version="1.0" encoding="UTF-8" standalone="no"?>
<!DOCTYPE svg PUBLIC "-//W3C//DTD SVG 1.1//EN"
 "http://www.w3.org/Graphics/SVG/1.1/DTD/svg11.dtd">
<!-- Generated by graphviz version 2.40.1 (0)
 -->
<!-- Title: hdr&#45;types/include/hdr&#45;types/hdr&#45;imap.h++ Pages: 1 -->
<svg width="178pt" height="240pt"
 viewBox="0.00 0.00 178.00 240.00" xmlns="http://www.w3.org/2000/svg" xmlns:xlink="http://www.w3.org/1999/xlink">
<g id="graph0" class="graph" transform="scale(1 1) rotate(0) translate(4 236)">
<title>hdr&#45;types/include/hdr&#45;types/hdr&#45;imap.h++</title>
<polygon fill="#ffffff" stroke="transparent" points="-4,4 -4,-236 174,-236 174,4 -4,4"/>
<!-- Node2 -->
<g id="node1" class="node">
<title>Node2</title>
<g id="a_node1"><a xlink:title=" ">
<polygon fill="#bfbfbf" stroke="#000000" points="25.5,-201.5 25.5,-231.5 144.5,-231.5 144.5,-201.5 25.5,-201.5"/>
<text text-anchor="start" x="33.5" y="-219.5" font-family="Helvetica,sans-Serif" font-size="10.00" fill="#000000">hdr&#45;types/include/hdr</text>
<text text-anchor="middle" x="85" y="-208.5" font-family="Helvetica,sans-Serif" font-size="10.00" fill="#000000">&#45;types/hdr&#45;imap.h++</text>
</a>
</g>
</g>
<!-- Node3 -->
<g id="node2" class="node">
<title>Node3</title>
<g id="a_node2"><a xlink:href="hdr-map-core_8h_09_09.html" target="_top" xlink:title=" ">
<polygon fill="#ffffff" stroke="#000000" points="14.5,-134.5 14.5,-164.5 155.5,-164.5 155.5,-134.5 14.5,-134.5"/>
<text text-anchor="start" x="22.5" y="-152.5" font-family="Helvetica,sans-Serif" font-size="10.00" fill="#000000">hdr&#45;types/include/hdr</text>
<text text-anchor="middle" x="85" y="-141.5" font-family="Helvetica,sans-Serif" font-size="10.00" fill="#000000">&#45;types/hdr&#45;map&#45;core.h++</text>
</a>
</g>
</g>
<!-- Node2&#45;&gt;Node3 -->
<g id="edge1" class="edge">
<title>Node2&#45;&gt;Node3</title>
<path fill="none" stroke="#191970" d="M85,-191.0249C85,-182.128 85,-172.4287 85,-164.6432"/>
<polygon fill="#191970" stroke="#191970" points="81.5001,-191.2966 85,-201.2967 88.5001,-191.2967 81.5001,-191.2966"/>
</g>
<!-- Node4 -->
<g id="node3" class="node">
<title>Node4</title>
<g id="a_node3"><a xlink:href="hdr-map-templates_8h_09_09.html" target="_top" xlink:title=" ">
<polygon fill="#ffffff" stroke="#000000" points="0,-67.5 0,-97.5 170,-97.5 170,-67.5 0,-67.5"/>
<text text-anchor="start" x="8" y="-85.5" font-family="Helvetica,sans-Serif" font-size="10.00" fill="#000000">hdr&#45;types/include/hdr</text>
<text text-anchor="middle" x="85" y="-74.5" font-family="Helvetica,sans-Serif" font-size="10.00" fill="#000000">&#45;types/hdr&#45;map&#45;templates.h++</text>
</a>
</g>
</g>
<!-- Node3&#45;&gt;Node4 -->
<g id="edge2" class="edge">
<title>Node3&#45;&gt;Node4</title>
<path fill="none" stroke="#191970" d="M85,-124.0249C85,-115.128 85,-105.4287 85,-97.6432"/>
<polygon fill="#191970" stroke="#191970" points="81.5001,-124.2966 85,-134.2967 88.5001,-124.2967 81.5001,-124.2966"/>
</g>
<!-- Node5 -->
<g id="node4" class="node">
<title>Node5</title>
<g id="a_node4"><a xlink:href="hdr-map_8h_09_09.html" target="_top" xlink:title=" ">
<polygon fill="#ffffff" stroke="#000000" points="25.5,-.5 25.5,-30.5 144.5,-30.5 144.5,-.5 25.5,-.5"/>
<text text-anchor="start" x="33.5" y="-18.5" font-family="Helvetica,sans-Serif" font-size="10.00" fill="#000000">hdr&#45;types/include/hdr</text>
<text text-anchor="middle" x="85" y="-7.5" font-family="Helvetica,sans-Serif" font-size="10.00" fill="#000000">&#45;types/hdr&#45;map.h++</text>
</a>
</g>
</g>
<!-- Node4&#45;&gt;Node5 -->
<g id="edge3" class="edge">
<title>Node4&#45;&gt;Node5</title>
<path fill="none" stroke="#191970" d="M85,-57.0249C85,-48.128 85,-38.4287 85,-30.6432"/>
<polygon fill="#191970" stroke="#191970" points="81.5001,-57.2966 85,-67.2967 88.5001,-57.2967 81.5001,-57.2966"/>
</g>
</g>
</svg>
